%YAML 1.1
%TAG !u! tag:unity3d.com,2011:
--- !u!1045 &1
EditorBuildSettings:
  m_ObjectHideFlags: 0
  serializedVersion: 2
  m_Scenes:
  - enabled: 1
    path: Assets/Scenes/MainMenu.unity
    guid: 71279989f8d218243ae15abbd4a92d11
  - enabled: 1
    path: Assets/Scenes/Tutorial.unity
    guid: fdf194dfa728f954f87859b786de5063
  - enabled: 1
    path: Assets/Scenes/Lvl1.unity
    guid: ea4be5ccd824ca54fb6430435d54ef07
  m_configObjects: {}
